…
8. What is the population for all countries on the Asian continent in 2007? Show this as a barplot.


```r
gmAsia <- gapminder %>%
  filter(year==2007, continent =="Asia")
gmAsia
```

```
## # A tibble: 33 x 6
##    country          continent  year lifeExp        pop gdpPercap
##    <fct>            <fct>     <int>   <dbl>      <int>     <dbl>
##  1 Afghanistan      Asia       2007    43.8   31889923      975.
##  2 Bahrain          Asia       2007    75.6     708573    29796.
##  3 Bangladesh       Asia       2007    64.1  150448339     1391.
##  4 Cambodia         Asia       2007    59.7   14131858     1714.
##  5 China            Asia       2007    73.0 1318683096     4959.
##  6 Hong Kong, China Asia       2007    82.2    6980412    39725.
##  7 India            Asia       2007    64.7 1110396331     2452.
##  8 Indonesia        Asia       2007    70.6  223547000     3541.
##  9 Iran             Asia       2007    71.0   69453570    11606.
## 10 Iraq             Asia       2007    59.5   27499638     4471.
## # … with 23 more rows
```
…
