…
```
## [1] "lakeid"          "fish_id"         "annnumber"       "length"         
## [5] "radii_length_mm" "scalelength"
```


```r
filter(fish,lakeid=="AL")
```

```
## # A tibble: 383 x 6
##    lakeid fish_id annnumber length radii_length_mm scalelength
##    <chr>    <dbl> <chr>      <dbl>           <dbl>       <dbl>
##  1 AL         299 EDGE         167            2.70        2.70
##  2 AL         299 2            167            2.04        2.70
##  3 AL         299 1            167            1.31        2.70
##  4 AL         300 EDGE         175            3.02        3.02
##  5 AL         300 3            175            2.67        3.02
##  6 AL         300 2            175            2.14        3.02
##  7 AL         300 1            175            1.23        3.02
##  8 AL         301 EDGE         194            3.34        3.34
##  9 AL         301 3            194            2.97        3.34
## 10 AL         301 2            194            2.29        3.34
## # … with 373 more rows
```
#filter: can use >, >=, ==, &(and), |(or), etc.

```r
filter(fish,length > 350 & lakeid =="AL")
```

```
## # A tibble: 314 x 6
##    lakeid fish_id annnumber length radii_length_mm scalelength
##    <chr>    <dbl> <chr>      <dbl>           <dbl>       <dbl>
##  1 AL         307 EDGE         353            7.55        7.55
##  2 AL         307 13           353            7.28        7.55
##  3 AL         307 12           353            6.98        7.55
##  4 AL         307 11           353            6.73        7.55
##  5 AL         307 10           353            6.48        7.55
##  6 AL         307 9            353            6.22        7.55
##  7 AL         307 8            353            5.92        7.55
##  8 AL         307 7            353            5.44        7.55
##  9 AL         307 6            353            5.06        7.55
## 10 AL         307 5            353            4.37        7.55
## # … with 304 more rows
```
…
```r
filter(fish, !length == 175)
```

```
## # A tibble: 4,021 x 6
##    lakeid fish_id annnumber length radii_length_mm scalelength
##    <chr>    <dbl> <chr>      <dbl>           <dbl>       <dbl>
##  1 AL         299 EDGE         167            2.70        2.70
##  2 AL         299 2            167            2.04        2.70
##  3 AL         299 1            167            1.31        2.70
##  4 AL         301 EDGE         194            3.34        3.34
##  5 AL         301 3            194            2.97        3.34
##  6 AL         301 2            194            2.29        3.34
##  7 AL         301 1            194            1.55        3.34
##  8 AL         302 EDGE         324            6.07        6.07
##  9 AL         302 9            324            5.73        6.07
## 10 AL         302 8            324            5.41        6.07
## # … with 4,011 more rows
```


##practice

1. Filter the `fish` data to include the samples from lake `DY`.

```r
filter(fish, lakeid == "DY")
```

```
## # A tibble: 355 x 6
##    lakeid fish_id annnumber length radii_length_mm scalelength
##    <chr>    <dbl> <chr>      <dbl>           <dbl>       <dbl>
##  1 DY         359 EDGE         124           1.68         1.68
##  2 DY         359 2            124           1.35         1.68
##  3 DY         359 1            124           0.594        1.68
##  4 DY         360 EDGE         233           3.85         3.85
##  5 DY         360 6            233           3.34         3.85
##  6 DY         360 5            233           3.03         3.85
##  7 DY         360 4            233           2.60         3.85
##  8 DY         360 3            233           2.24         3.85
##  9 DY         360 2            233           1.71         3.85
## 10 DY         360 1            233           0.832        3.85
## # … with 345 more rows
```

2. Filter the data to include all lakes except AL.

```r
filter(fish, !lakeid == "AL")
```

```
## # A tibble: 3,650 x 6
##    lakeid fish_id annnumber length radii_length_mm scalelength
##    <chr>    <dbl> <chr>      <dbl>           <dbl>       <dbl>
##  1 AR         269 EDGE         140            2.01        2.01
##  2 AR         269 1            140            1.48        2.01
##  3 AR         270 EDGE         193            2.66        2.66
##  4 AR         270 3            193            2.39        2.66
##  5 AR         270 2            193            2.03        2.66
##  6 AR         270 1            193            1.42        2.66
##  7 AR         271 EDGE         220            3.50        3.50
##  8 AR         271 5            220            3.13        3.50
##  9 AR         271 4            220            2.86        3.50
## 10 AR         271 3            220            2.63        3.50
## # … with 3,640 more rows
```

3. Filter the data to include all lakes except AL and DY.

```r
filter(fish, !lakeid == "AL" & !lakeid == "DY")
```

```
## # A tibble: 3,295 x 6
##    lakeid fish_id annnumber length radii_length_mm scalelength
##    <chr>    <dbl> <chr>      <dbl>           <dbl>       <dbl>
##  1 AR         269 EDGE         140            2.01        2.01
##  2 AR         269 1            140            1.48        2.01
##  3 AR         270 EDGE         193            2.66        2.66
##  4 AR         270 3            193            2.39        2.66
##  5 AR         270 2            193            2.03        2.66
##  6 AR         270 1            193            1.42        2.66
##  7 AR         271 EDGE         220            3.50        3.50
##  8 AR         271 5            220            3.13        3.50
##  9 AR         271 4            220            2.86        3.50
## 10 AR         271 3            220            2.63        3.50
## # … with 3,285 more rows
```
…
## Pipes
#shortcut: shift + command + m
#pipe the data into the code to make it look cleaner

```r
fish %>%
  filter(lakeid == "AL")
```

```
## # A tibble: 383 x 6
##    lakeid fish_id annnumber length radii_length_mm scalelength
##    <chr>    <dbl> <chr>      <dbl>           <dbl>       <dbl>
##  1 AL         299 EDGE         167            2.70        2.70
##  2 AL         299 2            167            2.04        2.70
##  3 AL         299 1            167            1.31        2.70
##  4 AL         300 EDGE         175            3.02        3.02
##  5 AL         300 3            175            2.67        3.02
##  6 AL         300 2            175            2.14        3.02
##  7 AL         300 1            175            1.23        3.02
##  8 AL         301 EDGE         194            3.34        3.34
##  9 AL         301 3            194            2.97        3.34
## 10 AL         301 2            194            2.29        3.34
## # … with 373 more rows
```

## Select()
#filter out by rows

```r
fish %>% 
  select(lakeid, scalelength)
```

```
## # A tibble: 4,033 x 2
##    lakeid scalelength
##    <chr>        <dbl>
##  1 AL            2.70
##  2 AL            2.70
##  3 AL            2.70
##  4 AL            3.02
##  5 AL            3.02
##  6 AL            3.02
##  7 AL            3.02
##  8 AL            3.34
##  9 AL            3.34
## 10 AL            3.34
## # … with 4,023 more rows
```
…
